{
    "project_name": "Best Practices",
    "repo_name": "{{ cookiecutter.project_name.lower().replace(' ', '-').replace('_', '-') }}",
    "ansible_group_name": "{{ cookiecutter.project_name.lower().replace(' ', '_').replace('-', '_') }}",
    "python_version": "3.11"
}
